{
  "port": 3000,
  "url": "http://10.0.1.10",
  "logLevel": "DEBUG",
  "logFile": "logs/log.out",
  "gdalwarp":"/Library/Frameworks/GDAL.framework/Programs/gdalwarp",
  "gdal_translate":"/Library/Frameworks/GDAL.framework/Programs/gdal_translate",
  "fileDump": "/Users/Moy/JSProjects/agrimote-api/AgriMote-Node-Api/test-data/",
  "tiles": "/Users/Moy/JSProjects/agrimote-api/AgriMote-Node-Api/test-data/",
  "slash": "/"
}